…
``` r
library(bes.hydro)
library(units)
#> udunits database from C:/Users/jlaw/AppData/Local/R/win-library/4.4/units/share/udunits/udunits2.xml
```

``` r
data(flow)
print(flow)
#> # A tibble: 17,280 × 10
#>    project_name             location_code location_description manhole_hansen_id
#>    <chr>                    <chr>         <chr>                <fct>            
#>  1 Continuous Collection S… TGD-24        SE 20th & Woodward   ABZ075           
#>  2 Continuous Collection S… TGD-24        SE 20th & Woodward   ABZ075           
#>  3 Continuous Collection S… TGD-24        SE 20th & Woodward   ABZ075           
#>  4 Continuous Collection S… TGD-24        SE 20th & Woodward   ABZ075           
#>  5 Continuous Collection S… TGD-24        SE 20th & Woodward   ABZ075           
#>  6 Continuous Collection S… TGD-24        SE 20th & Woodward   ABZ075           
#>  7 Continuous Collection S… TGD-24        SE 20th & Woodward   ABZ075           
#>  8 Continuous Collection S… TGD-24        SE 20th & Woodward   ABZ075           
#>  9 Continuous Collection S… TGD-24        SE 20th & Woodward   ABZ075           
#> 10 Continuous Collection S… TGD-24        SE 20th & Woodward   ABZ075           
#> # ℹ 17,270 more rows
#> # ℹ 6 more variables: reading_datetime <dttm>, depth [in], velocity [ft/s],
#> #   flow [ft^3/s], depth_qualifier <chr>, velocity_qualifier <chr>
```
…
